[
    {
        "whoJunctiontableID": 184740,
        "whoTypeTableID": 139,
        "whoType": "Publisher",
        "whoTableID": 26224,
        "who": "R. Hutchison & Co.",
        "whoAuthority": "No Authority",
        "authorityID": null
    },
    {
        "whoJunctiontableID": 204070,
        "whoTypeTableID": 26339,
        "whoType": "Subject of text",
        "whoTableID": 26432,
        "who": "Fortunatus (Legendary character)",
        "whoAuthority": "LCSH",
        "authorityID": null
    }
]